[{"node" : 
  {"style" : [
      {"height":128},
      {"width":16},
      {"border-radius":"5px"},
      {"display":"block"},
      {"padding-top":"5px"},
      {"background-color":"#6A6A6A"},
      {"box-shadow":"0px 0px 10px 2px #6A6A6A"}
  ],
   "name" : "root-node",
   "childs" : [{"node" : 
		{"style" : 
		 [{"background-color": "#FF5A5A"},
		  {"height":"%%percent%%%"},
		  {"top":"%%margin-top%%%"},
		  {"position":"relative"},
		  {"width":2},
		  {"box-shadow":"0px 0px 10px 1px red"},
		  {"margin-left":"auto"},
		  {"margin-right":"auto"},
		  {"margin-top":"500px;"},
		  {"display":"block"}
		 ],
		 "name":"jauge-node"
		}
	       }]
  }
 },
 {"node" : 
  {"style" : 
   [{"background-color": "#FF0000"},
    {"height":32},
    {"cursor":"pointer"},
    {"position":"relative"},
    {"width":32},
    {"display":"block"}
   ],
   "name":"stats-button",
   "content":"Stats"
  }
 },
 {"node" : 
  {"style" : 
   [{"background-color": "#FFFFFF"},
    {"height":350},
    {"position":"relative"},
    {"width":350},
    {"display":"block"}
   ],
   "name":"jauge-stats"
  }
 }]
